E:\Software\Workspace\sonarQubeDemo\src\main\java\com\main\model\User.java
E:\Software\Workspace\sonarQubeDemo\src\main\java\com\main\SpringMain.java
E:\Software\Workspace\sonarQubeDemo\src\main\java\com\main\controller\Controller.java
